プレイヤー5クラス
	Knight(Reg: own, SAtk: 0, SDef: 1(high))
	Wizard(Reg: all, SAtk: 1, SDef: 1, Hp, Atk: low)
	Fighter(Reg: none, SAtk: 0, SDef: 0, Hp, Atk: high, Agl: low)
	Thief(Reg: own, SAtk: 1(high), SDef: 0, Agl: high)
	Priest(Reg: none, SAtk: 1, SDef: 1, Atk: low, Agl: high)